update-alternatives 2020-05-14 13:27:40: run with --install /usr/bin/yacc yacc /usr/bin/bison.yacc 100 --slave /usr/share/man/man1/yacc.1.gz yaccman /usr/share/man/man1/bison.yacc.1.gz
update-alternatives 2020-05-14 13:27:40: link group yacc updated to point to /usr/bin/bison.yacc
update-alternatives 2020-05-14 13:27:41: run with --install /usr/bin/automake automake /usr/bin/automake-1.16 34 --slave /usr/bin/aclocal aclocal /usr/bin/aclocal-1.16 --slave /usr/share/man/man1/automake.1.gz automake.1.gz /usr/share/man/man1/automake-1.16.1.gz --slave /usr/share/man/man1/aclocal.1.gz aclocal.1.gz /usr/share/man/man1/aclocal-1.16.1.gz
update-alternatives 2020-05-14 13:27:41: link group automake updated to point to /usr/bin/automake-1.16
update-alternatives 2020-05-19 12:54:51: run with --install /etc/mysql/my.cnf my.cnf /etc/mysql/my.cnf.fallback 100
update-alternatives 2020-05-19 12:54:51: link group my.cnf updated to point to /etc/mysql/my.cnf.fallback
update-alternatives 2020-05-19 12:54:51: run with --install /etc/mysql/my.cnf my.cnf /etc/mysql/mariadb.cnf 200
update-alternatives 2020-05-19 12:54:51: link group my.cnf updated to point to /etc/mysql/mariadb.cnf
update-alternatives 2020-05-19 12:54:51: run with --install /usr/bin/frm frm /usr/bin/frm.mailutils 20 --slave /usr/share/man/man1/frm.1.gz frm.1.gz /usr/share/man/man1/frm.mailutils.1.gz
update-alternatives 2020-05-19 12:54:51: link group frm updated to point to /usr/bin/frm.mailutils
update-alternatives 2020-05-19 12:54:51: run with --install /usr/bin/from from /usr/bin/from.mailutils 20 --slave /usr/share/man/man1/from.1.gz from.1.gz /usr/share/man/man1/from.mailutils.1.gz
update-alternatives 2020-05-19 12:54:51: link group from updated to point to /usr/bin/from.mailutils
update-alternatives 2020-05-19 12:54:51: run with --install /usr/bin/messages messages /usr/bin/messages.mailutils 20 --slave /usr/share/man/man1/messages.1.gz messages.1.gz /usr/share/man/man1/messages.mailutils.1.gz
update-alternatives 2020-05-19 12:54:51: link group messages updated to point to /usr/bin/messages.mailutils
update-alternatives 2020-05-19 12:54:51: run with --install /usr/bin/movemail movemail /usr/bin/movemail.mailutils 20 --slave /usr/share/man/man1/movemail.1.gz movemail.1.gz /usr/share/man/man1/movemail.mailutils.1.gz
update-alternatives 2020-05-19 12:54:51: link group movemail updated to point to /usr/bin/movemail.mailutils
update-alternatives 2020-05-19 12:54:51: run with --install /usr/bin/readmsg readmsg /usr/bin/readmsg.mailutils 20 --slave /usr/share/man/man1/readmsg.1.gz readmsg.1.gz /usr/share/man/man1/readmsg.mailutils.1.gz
update-alternatives 2020-05-19 12:54:51: link group readmsg updated to point to /usr/bin/readmsg.mailutils
update-alternatives 2020-05-19 12:54:51: run with --install /usr/bin/dotlock dotlock /usr/bin/dotlock.mailutils 4 --slave /usr/share/man/man1/dotlock.1.gz dotlock.1.gz /usr/share/man/man1/dotlock.mailutils.1.gz
update-alternatives 2020-05-19 12:54:51: link group dotlock updated to point to /usr/bin/dotlock.mailutils
update-alternatives 2020-05-19 12:54:51: run with --install /usr/bin/mailx mailx /usr/bin/mail.mailutils 30 --slave /usr/share/man/man1/mailx.1.gz mailx.1.gz /usr/share/man/man1/mail.mailutils.1.gz --slave /usr/bin/mail mail /usr/bin/mail.mailutils --slave /usr/share/man/man1/mail.1.gz mail.1.gz /usr/share/man/man1/mail.mailutils.1.gz
update-alternatives 2020-05-19 12:54:51: link group mailx updated to point to /usr/bin/mail.mailutils
update-alternatives 2020-05-22 17:15:59: run with --install /usr/bin/gnome-text-editor gnome-text-editor /usr/bin/gedit 50 --slave /usr/share/man/man1/gnome-text-editor.1.gz gnome-text-editor.1.gz /usr/share/man/man1/gedit.1.gz
update-alternatives 2020-05-22 17:15:59: link group gnome-text-editor updated to point to /usr/bin/gedit
update-alternatives 2020-05-29 17:08:40: run with --install /usr/bin/telnet telnet /usr/bin/telnet.netkit 100 --slave /usr/share/man/man1/telnet.1.gz telnet.1.gz /usr/share/man/man1/telnet.netkit.1.gz
update-alternatives 2020-05-29 17:08:40: link group telnet updated to point to /usr/bin/telnet.netkit
