May 29 17:13:08 raspberrypi sSMTP[2318]: Cannot open smtp.gmail.com:587
May 29 17:15:01 raspberrypi sSMTP[2548]: Cannot open smtp.gmail.com:587
May 29 17:20:02 raspberrypi sSMTP[3119]: Cannot open smtp.gmail.com:587
May 29 17:25:01 raspberrypi sSMTP[3676]: Cannot open smtp.gmail.com:587
May 29 17:30:01 raspberrypi sSMTP[4247]: Cannot open smtp.gmail.com:587
May 29 17:35:01 raspberrypi sSMTP[4804]: Cannot open smtp.gmail.com:587
May 29 17:40:02 raspberrypi sSMTP[5361]: Cannot open smtp.gmail.com:587
May 29 17:45:01 raspberrypi sSMTP[5919]: Cannot open smtp.gmail.com:587
May 29 17:50:01 raspberrypi sSMTP[6477]: Cannot open smtp.gmail.com:587
May 29 17:55:01 raspberrypi sSMTP[7016]: Cannot open smtp.gmail.com:587
May 29 18:00:01 raspberrypi sSMTP[7604]: Cannot open smtp.gmail.com:587
May 29 18:05:02 raspberrypi sSMTP[8162]: Cannot open smtp.gmail.com:587
May 29 18:10:01 raspberrypi sSMTP[8701]: Cannot open smtp.gmail.com:587
May 29 18:15:01 raspberrypi sSMTP[9259]: Cannot open smtp.gmail.com:587
May 29 18:20:01 raspberrypi sSMTP[9831]: Cannot open smtp.gmail.com:587
May 29 18:25:02 raspberrypi sSMTP[10390]: Cannot open smtp.gmail.com:587
May 29 18:30:01 raspberrypi sSMTP[10947]: Cannot open smtp.gmail.com:587
May 29 18:35:01 raspberrypi sSMTP[11505]: Cannot open smtp.gmail.com:587
May 29 18:40:01 raspberrypi sSMTP[12043]: Cannot open smtp.gmail.com:587
May 29 18:45:02 raspberrypi sSMTP[12601]: Cannot open smtp.gmail.com:587
May 29 18:50:01 raspberrypi sSMTP[13156]: Cannot open smtp.gmail.com:587
May 29 18:55:01 raspberrypi sSMTP[13714]: Cannot open smtp.gmail.com:587
May 29 19:00:01 raspberrypi sSMTP[14271]: Cannot open smtp.gmail.com:587
May 29 19:05:01 raspberrypi sSMTP[14828]: Cannot open smtp.gmail.com:587
May 29 19:10:02 raspberrypi sSMTP[15367]: Cannot open smtp.gmail.com:587
May 29 19:15:01 raspberrypi sSMTP[15925]: Cannot open smtp.gmail.com:587
May 29 19:20:01 raspberrypi sSMTP[16496]: Cannot open smtp.gmail.com:587
May 29 19:25:01 raspberrypi sSMTP[17054]: Cannot open smtp.gmail.com:587
May 29 19:30:01 raspberrypi sSMTP[17609]: Cannot open smtp.gmail.com:587
May 29 19:35:01 raspberrypi sSMTP[18151]: Cannot open smtp.gmail.com:587
May 29 19:40:01 raspberrypi sSMTP[18708]: Cannot open smtp.gmail.com:587
