May 29 17:13:08 raspberrypi sSMTP[2318]: Unable to set UseSTARTTSL="YES"
May 29 17:13:08 raspberrypi sSMTP[2318]: Creating SSL connection to host
May 29 17:13:08 raspberrypi sSMTP[2318]: SSL connection using (null)
May 29 17:13:08 raspberrypi sSMTP[2318]: Cannot open smtp.gmail.com:587
May 29 17:15:01 raspberrypi sSMTP[2548]: Unable to set UseSTARTTSL="YES"
May 29 17:15:01 raspberrypi sSMTP[2548]: Creating SSL connection to host
May 29 17:15:01 raspberrypi sSMTP[2548]: SSL connection using (null)
May 29 17:15:01 raspberrypi sSMTP[2548]: Cannot open smtp.gmail.com:587
May 29 17:20:02 raspberrypi sSMTP[3119]: Unable to set UseSTARTTSL="YES"
May 29 17:20:02 raspberrypi sSMTP[3119]: Creating SSL connection to host
May 29 17:20:02 raspberrypi sSMTP[3119]: SSL connection using (null)
May 29 17:20:02 raspberrypi sSMTP[3119]: Cannot open smtp.gmail.com:587
May 29 17:25:01 raspberrypi sSMTP[3676]: Unable to set UseSTARTTSL="YES"
May 29 17:25:01 raspberrypi sSMTP[3676]: Creating SSL connection to host
May 29 17:25:01 raspberrypi sSMTP[3676]: SSL connection using (null)
May 29 17:25:01 raspberrypi sSMTP[3676]: Cannot open smtp.gmail.com:587
May 29 17:30:01 raspberrypi sSMTP[4247]: Unable to set UseSTARTTSL="YES"
May 29 17:30:01 raspberrypi sSMTP[4247]: Creating SSL connection to host
May 29 17:30:01 raspberrypi sSMTP[4247]: SSL connection using (null)
May 29 17:30:01 raspberrypi sSMTP[4247]: Cannot open smtp.gmail.com:587
May 29 17:35:01 raspberrypi sSMTP[4804]: Unable to set UseSTARTTSL="YES"
May 29 17:35:01 raspberrypi sSMTP[4804]: Creating SSL connection to host
May 29 17:35:01 raspberrypi sSMTP[4804]: SSL connection using (null)
May 29 17:35:01 raspberrypi sSMTP[4804]: Cannot open smtp.gmail.com:587
May 29 17:40:01 raspberrypi sSMTP[5361]: Unable to set UseSTARTTSL="YES"
May 29 17:40:02 raspberrypi sSMTP[5361]: Creating SSL connection to host
May 29 17:40:02 raspberrypi sSMTP[5361]: SSL connection using (null)
May 29 17:40:02 raspberrypi sSMTP[5361]: Cannot open smtp.gmail.com:587
May 29 17:45:01 raspberrypi sSMTP[5919]: Unable to set UseSTARTTSL="YES"
May 29 17:45:01 raspberrypi sSMTP[5919]: Creating SSL connection to host
May 29 17:45:01 raspberrypi sSMTP[5919]: SSL connection using (null)
May 29 17:45:01 raspberrypi sSMTP[5919]: Cannot open smtp.gmail.com:587
May 29 17:50:01 raspberrypi sSMTP[6477]: Unable to set UseSTARTTSL="YES"
May 29 17:50:01 raspberrypi sSMTP[6477]: Creating SSL connection to host
May 29 17:50:01 raspberrypi sSMTP[6477]: SSL connection using (null)
May 29 17:50:01 raspberrypi sSMTP[6477]: Cannot open smtp.gmail.com:587
May 29 17:55:01 raspberrypi sSMTP[7016]: Unable to set UseSTARTTSL="YES"
May 29 17:55:01 raspberrypi sSMTP[7016]: Creating SSL connection to host
May 29 17:55:01 raspberrypi sSMTP[7016]: SSL connection using (null)
May 29 17:55:01 raspberrypi sSMTP[7016]: Cannot open smtp.gmail.com:587
May 29 18:00:01 raspberrypi sSMTP[7604]: Unable to set UseSTARTTSL="YES"
May 29 18:00:01 raspberrypi sSMTP[7604]: Creating SSL connection to host
May 29 18:00:01 raspberrypi sSMTP[7604]: SSL connection using (null)
May 29 18:00:01 raspberrypi sSMTP[7604]: Cannot open smtp.gmail.com:587
May 29 18:05:02 raspberrypi sSMTP[8162]: Unable to set UseSTARTTSL="YES"
May 29 18:05:02 raspberrypi sSMTP[8162]: Creating SSL connection to host
May 29 18:05:02 raspberrypi sSMTP[8162]: SSL connection using (null)
May 29 18:05:02 raspberrypi sSMTP[8162]: Cannot open smtp.gmail.com:587
May 29 18:10:01 raspberrypi sSMTP[8701]: Unable to set UseSTARTTSL="YES"
May 29 18:10:01 raspberrypi sSMTP[8701]: Creating SSL connection to host
May 29 18:10:01 raspberrypi sSMTP[8701]: SSL connection using (null)
May 29 18:10:01 raspberrypi sSMTP[8701]: Cannot open smtp.gmail.com:587
May 29 18:15:01 raspberrypi sSMTP[9259]: Unable to set UseSTARTTSL="YES"
May 29 18:15:01 raspberrypi sSMTP[9259]: Creating SSL connection to host
May 29 18:15:01 raspberrypi sSMTP[9259]: SSL connection using (null)
May 29 18:15:01 raspberrypi sSMTP[9259]: Cannot open smtp.gmail.com:587
May 29 18:20:01 raspberrypi sSMTP[9831]: Unable to set UseSTARTTSL="YES"
May 29 18:20:01 raspberrypi sSMTP[9831]: Creating SSL connection to host
May 29 18:20:01 raspberrypi sSMTP[9831]: SSL connection using (null)
May 29 18:20:01 raspberrypi sSMTP[9831]: Cannot open smtp.gmail.com:587
May 29 18:25:02 raspberrypi sSMTP[10390]: Unable to set UseSTARTTSL="YES"
May 29 18:25:02 raspberrypi sSMTP[10390]: Creating SSL connection to host
May 29 18:25:02 raspberrypi sSMTP[10390]: SSL connection using (null)
May 29 18:25:02 raspberrypi sSMTP[10390]: Cannot open smtp.gmail.com:587
May 29 18:30:01 raspberrypi sSMTP[10947]: Unable to set UseSTARTTSL="YES"
May 29 18:30:01 raspberrypi sSMTP[10947]: Creating SSL connection to host
May 29 18:30:01 raspberrypi sSMTP[10947]: SSL connection using (null)
May 29 18:30:01 raspberrypi sSMTP[10947]: Cannot open smtp.gmail.com:587
May 29 18:35:01 raspberrypi sSMTP[11505]: Unable to set UseSTARTTSL="YES"
May 29 18:35:01 raspberrypi sSMTP[11505]: Creating SSL connection to host
May 29 18:35:01 raspberrypi sSMTP[11505]: SSL connection using (null)
May 29 18:35:01 raspberrypi sSMTP[11505]: Cannot open smtp.gmail.com:587
May 29 18:40:01 raspberrypi sSMTP[12043]: Unable to set UseSTARTTSL="YES"
May 29 18:40:01 raspberrypi sSMTP[12043]: Creating SSL connection to host
May 29 18:40:01 raspberrypi sSMTP[12043]: SSL connection using (null)
May 29 18:40:01 raspberrypi sSMTP[12043]: Cannot open smtp.gmail.com:587
May 29 18:45:02 raspberrypi sSMTP[12601]: Unable to set UseSTARTTSL="YES"
May 29 18:45:02 raspberrypi sSMTP[12601]: Creating SSL connection to host
May 29 18:45:02 raspberrypi sSMTP[12601]: SSL connection using (null)
May 29 18:45:02 raspberrypi sSMTP[12601]: Cannot open smtp.gmail.com:587
May 29 18:50:01 raspberrypi sSMTP[13156]: Unable to set UseSTARTTSL="YES"
May 29 18:50:01 raspberrypi sSMTP[13156]: Creating SSL connection to host
May 29 18:50:01 raspberrypi sSMTP[13156]: SSL connection using (null)
May 29 18:50:01 raspberrypi sSMTP[13156]: Cannot open smtp.gmail.com:587
May 29 18:55:01 raspberrypi sSMTP[13714]: Unable to set UseSTARTTSL="YES"
May 29 18:55:01 raspberrypi sSMTP[13714]: Creating SSL connection to host
May 29 18:55:01 raspberrypi sSMTP[13714]: SSL connection using (null)
May 29 18:55:01 raspberrypi sSMTP[13714]: Cannot open smtp.gmail.com:587
May 29 19:00:01 raspberrypi sSMTP[14271]: Unable to set UseSTARTTSL="YES"
May 29 19:00:01 raspberrypi sSMTP[14271]: Creating SSL connection to host
May 29 19:00:01 raspberrypi sSMTP[14271]: SSL connection using (null)
May 29 19:00:01 raspberrypi sSMTP[14271]: Cannot open smtp.gmail.com:587
May 29 19:05:01 raspberrypi sSMTP[14828]: Unable to set UseSTARTTSL="YES"
May 29 19:05:01 raspberrypi sSMTP[14828]: Creating SSL connection to host
May 29 19:05:01 raspberrypi sSMTP[14828]: SSL connection using (null)
May 29 19:05:01 raspberrypi sSMTP[14828]: Cannot open smtp.gmail.com:587
May 29 19:10:02 raspberrypi sSMTP[15367]: Unable to set UseSTARTTSL="YES"
May 29 19:10:02 raspberrypi sSMTP[15367]: Creating SSL connection to host
May 29 19:10:02 raspberrypi sSMTP[15367]: SSL connection using (null)
May 29 19:10:02 raspberrypi sSMTP[15367]: Cannot open smtp.gmail.com:587
May 29 19:15:01 raspberrypi sSMTP[15925]: Unable to set UseSTARTTSL="YES"
May 29 19:15:01 raspberrypi sSMTP[15925]: Creating SSL connection to host
May 29 19:15:01 raspberrypi sSMTP[15925]: SSL connection using (null)
May 29 19:15:01 raspberrypi sSMTP[15925]: Cannot open smtp.gmail.com:587
May 29 19:20:01 raspberrypi sSMTP[16496]: Unable to set UseSTARTTSL="YES"
May 29 19:20:01 raspberrypi sSMTP[16496]: Creating SSL connection to host
May 29 19:20:01 raspberrypi sSMTP[16496]: SSL connection using (null)
May 29 19:20:01 raspberrypi sSMTP[16496]: Cannot open smtp.gmail.com:587
May 29 19:25:01 raspberrypi sSMTP[17054]: Unable to set UseSTARTTSL="YES"
May 29 19:25:01 raspberrypi sSMTP[17054]: Creating SSL connection to host
May 29 19:25:01 raspberrypi sSMTP[17054]: SSL connection using (null)
May 29 19:25:01 raspberrypi sSMTP[17054]: Cannot open smtp.gmail.com:587
May 29 19:30:01 raspberrypi sSMTP[17609]: Unable to set UseSTARTTSL="YES"
May 29 19:30:01 raspberrypi sSMTP[17609]: Creating SSL connection to host
May 29 19:30:01 raspberrypi sSMTP[17609]: SSL connection using (null)
May 29 19:30:01 raspberrypi sSMTP[17609]: Cannot open smtp.gmail.com:587
May 29 19:35:01 raspberrypi sSMTP[18151]: Unable to set UseSTARTTSL="YES"
May 29 19:35:01 raspberrypi sSMTP[18151]: Creating SSL connection to host
May 29 19:35:01 raspberrypi sSMTP[18151]: SSL connection using (null)
May 29 19:35:01 raspberrypi sSMTP[18151]: Cannot open smtp.gmail.com:587
May 29 19:40:01 raspberrypi sSMTP[18708]: Unable to set UseSTARTTSL="YES"
May 29 19:40:01 raspberrypi sSMTP[18708]: Creating SSL connection to host
May 29 19:40:01 raspberrypi sSMTP[18708]: SSL connection using (null)
May 29 19:40:01 raspberrypi sSMTP[18708]: Cannot open smtp.gmail.com:587
