::1 - - [12/May/2020:17:34:13 +0200] "GET / HTTP/1.1" 200 721 "-" "Mozilla/5.0 (X11; Linux armv7l) AppleWebKit/537.36 (KHTML, like Gecko) Raspbian Chromium/78.0.3904.108 Chrome/78.0.3904.108 Safari/537.36"
::1 - - [12/May/2020:17:34:13 +0200] "GET /icons/blank.gif HTTP/1.1" 200 433 "http://localhost/" "Mozilla/5.0 (X11; Linux armv7l) AppleWebKit/537.36 (KHTML, like Gecko) Raspbian Chromium/78.0.3904.108 Chrome/78.0.3904.108 Safari/537.36"
::1 - - [12/May/2020:17:34:13 +0200] "GET /icons/unknown.gif HTTP/1.1" 200 530 "http://localhost/" "Mozilla/5.0 (X11; Linux armv7l) AppleWebKit/537.36 (KHTML, like Gecko) Raspbian Chromium/78.0.3904.108 Chrome/78.0.3904.108 Safari/537.36"
::1 - - [12/May/2020:17:34:13 +0200] "GET /icons/image2.gif HTTP/1.1" 200 596 "http://localhost/" "Mozilla/5.0 (X11; Linux armv7l) AppleWebKit/537.36 (KHTML, like Gecko) Raspbian Chromium/78.0.3904.108 Chrome/78.0.3904.108 Safari/537.36"
::1 - - [12/May/2020:17:34:13 +0200] "GET /favicon.ico HTTP/1.1" 404 491 "http://localhost/" "Mozilla/5.0 (X11; Linux armv7l) AppleWebKit/537.36 (KHTML, like Gecko) Raspbian Chromium/78.0.3904.108 Chrome/78.0.3904.108 Safari/537.36"
::1 - - [12/May/2020:17:34:17 +0200] "GET /index.hmtl HTTP/1.1" 200 1317 "http://localhost/" "Mozilla/5.0 (X11; Linux armv7l) AppleWebKit/537.36 (KHTML, like Gecko) Raspbian Chromium/78.0.3904.108 Chrome/78.0.3904.108 Safari/537.36"
::1 - - [12/May/2020:17:34:17 +0200] "GET /logooo.png HTTP/1.1" 200 75708 "http://localhost/index.hmtl" "Mozilla/5.0 (X11; Linux armv7l) AppleWebKit/537.36 (KHTML, like Gecko) Raspbian Chromium/78.0.3904.108 Chrome/78.0.3904.108 Safari/537.36"
