[Thu Jun 04 11:25:20.875232 2020] [mpm_event:notice] [pid 741:tid 3069784592] AH00489: Apache/2.4.38 (Raspbian) configured -- resuming normal operations
[Thu Jun 04 11:25:20.875590 2020] [core:notice] [pid 741:tid 3069784592] AH00094: Command line: '/usr/sbin/apache2'
[Thu Jun 04 15:58:16.391936 2020] [mpm_event:notice] [pid 699:tid 3069649424] AH00489: Apache/2.4.38 (Raspbian) configured -- resuming normal operations
[Thu Jun 04 15:58:16.395381 2020] [core:notice] [pid 699:tid 3069649424] AH00094: Command line: '/usr/sbin/apache2'
[Thu Jun 04 16:03:38.886149 2020] [mpm_event:notice] [pid 699:tid 3069649424] AH00491: caught SIGTERM, shutting down
